Airport Growth Potential
…
#noticed there are duplicates of some rows (everything is same except distance is one mile different)
yrly_com_flights_df_no_dup_test <-  yrly_com_flights_df %>% distinct(origin_code, dest_code, year, .keep_all = TRUE)

#noticed the duplicates with the CLT/ABE route in the Individual Route and City Analysis section
#check dupes were removed
yrly_com_flights_df_no_dup_test %>% filter(origin_code == 'CLT')

## # A tibble: 436 x 16
## # Groups:   origin_code, dest_code [94]
##    origin_code dest_code  year yrly_passenger yrly_seats pass_growth
##    <chr>       <chr>     <int>          <dbl>      <dbl>       <dbl>
##  1 CLT         ABE        2009          31559      44687      -26621
##  2 CLT         ABE        2008          58180      77430        5485
##  3 CLT         ABE        2007          52695      71832       17216
##  4 CLT         ABE        2006          35479      56276        9011
##  5 CLT         ABE        2005          26468      49362          NA
##  6 CLT         AGS        2009          56858      82039       -2342
##  7 CLT         AGS        2008          59200      85875       13097
##  8 CLT         AGS        2007          46103      71959       12767
##  9 CLT         AGS        2006          33336      69362       -4366
## 10 CLT         AGS        2005          37702      74956          NA
## # ... with 426 more rows, and 10 more variables: seat_growth <dbl>,
## #   yrly_load_factor <dbl>, load_factor_growth <dbl>, origin_city <chr>,
## #   dest_city <chr>, origin_pop <dbl>, origin_pop_increase <dbl>,
## #   dest_pop <dbl>, dest_pop_increase <dbl>, distance <dbl>
…
As expected from passenger/seat numbers, Charlotte has highest load factor growth

3.2 City Growth Analysis

#total five year pop growth
pop_increases %>% group_by(origin_city) %>% 
  summarize(total_pop_growth = sum(pop_increase, na.rm = TRUE)) %>% 
  arrange(desc(total_pop_growth)) 

## # A tibble: 275 x 2
##    origin_city       total_pop_growth
##    <chr>                        <dbl>
##  1 Dallas, TX                 1262416
##  2 Houston, TX                 567922
##  3 New York, NY                543364
##  4 Atlanta, GA                 528201
##  5 Washington, DC              493948
##  6 Phoenix, AZ                 479506
##  7 Chicago, IL                 436974
##  8 Seattle, WA                 410920
##  9 San Francisco, CA           336492
## 10 Newark, NJ                  271682
## # ... with 265 more rows

#by percentage
pop_increases %>% group_by(origin_city) %>% 
  summarize(min_year = min(year), percent_pop_growth = sum(pop_increase, na.rm = TRUE) / avg_pop[year == min_year] * 100) %>% 
  arrange(desc(percent_pop_growth)) 

## # A tibble: 275 x 3
##    origin_city        min_year percent_pop_growth
##    <chr>                 <int>              <dbl>
##  1 Raleigh, NC            2005               18.1
##  2 Austin, TX             2005               16.4
##  3 St. George, UT         2005               15.4
##  4 Myrtle Beach, SC       2005               15.4
##  5 Charlotte, NC          2005               14.9
##  6 Grand Junction, CO     2005               12.9
##  7 Idaho Falls, ID        2005               12.8
##  8 Bend, OR               2005               12.5
##  9 Phoenix, AZ            2005               12.3
## 10 Fayetteville, AR       2005               12.3
## # ... with 265 more rows
…
